{
  apps : [{
    "name"             : "worker",
    "cwd"              : "/home/ashish/frodo-worker",
    "script"           : "worker.js",
    "log_date_format"  : "YYYY-MM-DD HH:mm Z",
    "error_file"       : "logs/worker-node-err.log",
    "out_file"         : "logs/worker-node-out.log",
    "instances"        : 1, //or 0 => 'max'
    "merge_logs"       : true,
    "exec_interpreter" : "node",
    "exec_mode"        : "cluster",

    // Default environment variables that will be injected in any environment and at any start
    "env": {
      "NODE_ENV": "production",
      "PYTHON_FOLDER" : "/home/ashish/anaconda3/bin/python",
      "SCRIPTS_FOLDER" : "/home/ashish/frodo-worker/scripts",
      "REDIS_URL" : "redis://localhost:6379"
    },
    "force" : true
  }]
}
